[
    {
        "id": 1,
        "cedula": "1350854814",
        "nombre": "Caroline Lucas",
        "direccion": "abc 130",
        "telefono": "0994137994",
        "correo": "Caroline@gmail.com",
        "curso": "5to",
        "paralelo": "B"
    },
    {
        "id": 2,
        "cedula": "1350684615",
        "nombre": "Kevin Avila",
        "direccion": "abc 130",
        "telefono": "0989141549",
        "correo": "Kevin@gmail.com",
        "curso": "5to",
        "paralelo": "B"
    },
    {
        "id": 3,
        "cedula": "1306548971",
        "nombre": "Josthen Avila",
        "direccion": "abc 130",
        "telefono": "0968490777",
        "correo": "Josthen@gmail.com",
        "curso": "5to",
        "paralelo": "B"
    },
    {
        "id": 4,
        "cedula": "1350214684",
        "nombre": "Edison Lavayen",
        "direccion": "abc 130",
        "telefono": "0968985721",
        "correo": "Edison@gmail.com",
        "curso": "5to",
        "paralelo": "B"
    },
    {
        "id": 5,
        "cedula": "0939938968",
        "nombre": "Said Lavayen",
        "direccion": "abc 130",
        "telefono": "0994137994",
        "correo": "Said@gmail.com",
        "curso": "5to",
        "paralelo": "B"
    },
    {
        "id": 6,
        "cedula": "1305487901",
        "nombre": "Jamileth Mendoza",
        "direccion": "abc 130",
        "telefono": "0983359219",
        "correo": "Jamileth@gmail.com",
        "curso": "5to",
        "paralelo": "B"
    },
    {
        "id": 7,
        "cedula": "1359846541",
        "nombre": "Marcos Palacios",
        "direccion": "abc 130",
        "telefono": "0998106974",
        "correo": "Marcos@gmail.com",
        "curso": "5to",
        "paralelo": "B"
    },
    {
        "id": 8,
        "cedula": "1306952345",
        "nombre": "Flor Rodriguez",
        "direccion": "abc 130",
        "telefono": "0939367077",
        "correo": "Flor@gmail.com",
        "curso": "5to",
        "paralelo": "B"
    },
    {
        "id": 9,
        "cedula": "1350654921",
        "nombre": "Jefferson Anchundia",
        "direccion": "abc 130",
        "telefono": "0988336543",
        "correo": "Jefferson@gmail.com",
        "curso": "5to",
        "paralelo": "B"
    },
    {
        "id": 10,
        "cedula": "1302546915",
        "nombre": "Melvin Rivera",
        "direccion": "abc 130",
        "telefono": "0989142476",
        "correo": "Melvin@gmail.com",
        "curso": "5to",
        "paralelo": "B"
    }
]
